…
``` r
Eur_hosp_smoke <- smoke_data_trans(coviddf)

Eur_hosp_smoke
```

    ## # A tibble: 30 × 3
    ##    location  mean_hosp mean_pop
    ##    <chr>         <dbl>    <dbl>
    ##  1 Bulgaria       469.  6896655
    ##  2 Serbia         419.  6871547
    ##  3 Lithuania      362.  2689862
    ##  4 Romania        326. 19127772
    ##  5 Hungary        290.  9634162
    ##  6 France         265. 67422000
    ##  7 Poland         255. 37797000
    ##  8 Latvia         231.  1866934
    ##  9 Croatia        228.  4081657
    ## 10 Czechia        220. 10724553
    ## # ℹ 20 more rows
…
    ## Loading required package: timechange

    ## 
    ## Attaching package: 'lubridate'

    ## The following objects are masked from 'package:base':
    ## 
    ##     date, intersect, setdiff, union

``` r
time_covid <- time_series(coviddf)
time_covid
```

    ## # A tibble: 209 × 4
    ##    continent year_month cont_hosp cont_ICU
    ##    <chr>     <chr>          <dbl>    <dbl>
    ##  1 ""        2020-01          NaN      NaN
    ##  2 ""        2020-02          NaN      NaN
    ##  3 ""        2020-03          NaN      NaN
    ##  4 ""        2020-04          NaN      NaN
    ##  5 ""        2020-05          NaN      NaN
    ##  6 ""        2020-06          NaN      NaN
    ##  7 ""        2020-07          NaN      NaN
    ##  8 ""        2020-08          NaN      NaN
    ##  9 ""        2020-09          NaN      NaN
    ## 10 ""        2020-10          NaN      NaN
    ## # ℹ 199 more rows
…
